MiniProyecto
…
RUZAFA_TIDY2 %>% count(Valores)

## # A tibble: 499 x 2
##    Valores     n
##      <dbl> <int>
##  1    40.1     1
##  2    41.1     1
##  3    41.3     1
##  4    41.6     2
##  5    41.8     4
##  6    42.1     1
##  7    42.2     2
##  8    42.3     1
##  9    42.5     4
## 10    42.6     1
## # ... with 489 more rows
…
En este caso, podemos ver que la calle que menos ha molestado a los vecinos en 2020, 2021 y 2022 es la misma, GeneralPrim. Con la difrerencia que en 2020 ha habido menos ruido en esa calle que en las otras dos.

PREGUNTA 2

¿Qué calle ha incrementado mas el ruido a lo largo del año 2022?

#Hacer un grafico de la diferencia de cuanto a variado el ruido por calle en 2022.
#Puede ser - y que una los puntos el grafico

RUZAFA_TIDY2 = RUZAFA_TIDY %>% filter(year(Dia_Medicion) == "2022") %>% group_by(Calles)
RUZAFA_TIDY2 = RUZAFA_TIDY2%>%
              select(Calles, Valores, Dia_Medicion)
RUZAFA_TIDY2

## # A tibble: 6,305 x 3
## # Groups:   Calles [13]
##    Calles      Valores Dia_Medicion
##    <chr>         <dbl> <date>      
##  1 VivChafCadz    59.9 2022-01-04  
##  2 VivChafCadz    60.5 2022-01-05  
##  3 VivChafCadz    57.9 2022-01-06  
##  4 VivChafCadz    61.2 2022-01-07  
##  5 VivChafCadz    62.4 2022-01-08  
##  6 VivChafCadz    59.1 2022-01-09  
##  7 VivChafCadz    60.6 2022-01-10  
##  8 VivChafCadz    61.2 2022-01-11  
##  9 VivChafCadz    60.2 2022-01-12  
## 10 VivChafCadz    61.7 2022-01-13  
## # ... with 6,295 more rows
…
